(kicad_symbol_lib
	(version 20231120)
	(generator "kicad_symbol_editor")
	(generator_version "8.0")
	(symbol "ADUC816"
		(pin_names
			(offset 0.762)
		)
		(exclude_from_sim no)
		(in_bom yes)
		(on_board yes)
		(property "Reference" "U"
			(at -24.13 45.72 0)
			(effects
				(font
					(size 1.27 1.27)
				)
				(justify left)
			)
		)
		(property "Value" "ADUC816"
			(at -24.13 43.18 0)
			(effects
				(font
					(size 1.27 1.27)
				)
				(justify left)
			)
		)
		(property "Footprint" ""
			(at 0 -5.08 0)
			(effects
				(font
					(size 1.27 1.27)
				)
				(hide yes)
			)
		)
		(property "Datasheet" "https://www.analog.com/static/imported-files/data_sheets/ADUC816.pdf"
			(at 0 -5.08 0)
			(effects
				(font
					(size 1.27 1.27)
				)
				(hide yes)
			)
		)
		(property "Description" "8KB Flash, 256B SRAM, 640B EEPROM, 16-bit ADC, 12-bit DAC, MQFP-52"
			(at 0 0 0)
			(effects
				(font
					(size 1.27 1.27)
				)
				(hide yes)
			)
		)
		(property "ki_keywords" "8051 CORE MCU ADC DAC"
			(at 0 0 0)
			(effects
				(font
					(size 1.27 1.27)
				)
				(hide yes)
			)
		)
		(property "ki_fp_filters" "MQFP*"
			(at 0 0 0)
			(effects
				(font
					(size 1.27 1.27)
				)
				(hide yes)
			)
		)
		(symbol "ADUC816_0_1"
			(rectangle
				(start 24.13 -41.91)
				(end -24.13 41.91)
				(stroke
					(width 0.254)
					(type default)
				)
				(fill
					(type background)
				)
			)
		)
		(symbol "ADUC816_1_1"
			(pin bidirectional line
				(at -27.94 33.02 0)
				(length 3.81)
				(name "P1.0(T2)"
					(effects
						(font
							(size 1.27 1.27)
						)
					)
				)
				(number "1"
					(effects
						(font
							(size 1.27 1.27)
						)
					)
				)
			)
			(pin input line
				(at -27.94 20.32 0)
				(length 3.81)
				(name "P1.5(AIN2)"
					(effects
						(font
							(size 1.27 1.27)
						)
					)
				)
				(number "10"
					(effects
						(font
							(size 1.27 1.27)
						)
					)
				)
			)
			(pin input line
				(at -27.94 17.78 0)
				(length 3.81)
				(name "P1.6(AIN3)"
					(effects
						(font
							(size 1.27 1.27)
						)
					)
				)
				(number "11"
					(effects
						(font
							(size 1.27 1.27)
						)
					)
				)
			)
			(pin bidirectional line
				(at -27.94 15.24 0)
				(length 3.81)
				(name "P1.7(AIN4)"
					(effects
						(font
							(size 1.27 1.27)
						)
					)
				)
				(number "12"
					(effects
						(font
							(size 1.27 1.27)
						)
					)
				)
			)
			(pin input line
				(at -27.94 -15.24 0)
				(length 3.81)
				(name "~{SS}"
					(effects
						(font
							(size 1.27 1.27)
						)
					)
				)
				(number "13"
					(effects
						(font
							(size 1.27 1.27)
						)
					)
				)
			)
			(pin input line
				(at -27.94 -12.7 0)
				(length 3.81)
				(name "MISO"
					(effects
						(font
							(size 1.27 1.27)
						)
					)
				)
				(number "14"
					(effects
						(font
							(size 1.27 1.27)
						)
					)
				)
			)
			(pin input line
				(at -27.94 38.1 0)
				(length 3.81)
				(name "RESET"
					(effects
						(font
							(size 1.27 1.27)
						)
					)
				)
				(number "15"
					(effects
						(font
							(size 1.27 1.27)
						)
					)
				)
			)
			(pin bidirectional line
				(at 27.94 -7.62 180)
				(length 3.81)
				(name "(RxD)P3.0"
					(effects
						(font
							(size 1.27 1.27)
						)
					)
				)
				(number "16"
					(effects
						(font
							(size 1.27 1.27)
						)
					)
				)
			)
			(pin bidirectional line
				(at 27.94 -10.16 180)
				(length 3.81)
				(name "(TxD)P3.1"
					(effects
						(font
							(size 1.27 1.27)
						)
					)
				)
				(number "17"
					(effects
						(font
							(size 1.27 1.27)
						)
					)
				)
			)
			(pin bidirectional line
				(at 27.94 -12.7 180)
				(length 3.81)
				(name "(~{INT0})P3.2"
					(effects
						(font
							(size 1.27 1.27)
						)
					)
				)
				(number "18"
					(effects
						(font
							(size 1.27 1.27)
						)
					)
				)
			)
			(pin bidirectional line
				(at 27.94 -15.24 180)
				(length 3.81)
				(name "(~{INT1})P3.3"
					(effects
						(font
							(size 1.27 1.27)
						)
					)
				)
				(number "19"
					(effects
						(font
							(size 1.27 1.27)
						)
					)
				)
			)
			(pin bidirectional line
				(at -27.94 30.48 0)
				(length 3.81)
				(name "P1.1(T2EX)"
					(effects
						(font
							(size 1.27 1.27)
						)
					)
				)
				(number "2"
					(effects
						(font
							(size 1.27 1.27)
						)
					)
				)
			)
			(pin power_in line
				(at 0 45.72 270)
				(length 3.81)
				(name "DVDD"
					(effects
						(font
							(size 1.27 1.27)
						)
					)
				)
				(number "20"
					(effects
						(font
							(size 1.27 1.27)
						)
					)
				)
			)
			(pin power_in line
				(at 0 -45.72 90)
				(length 3.81)
				(name "DGND"
					(effects
						(font
							(size 1.27 1.27)
						)
					)
				)
				(number "21"
					(effects
						(font
							(size 1.27 1.27)
						)
					)
				)
			)
			(pin bidirectional line
				(at 27.94 -17.78 180)
				(length 3.81)
				(name "(T0)P3.4"
					(effects
						(font
							(size 1.27 1.27)
						)
					)
				)
				(number "22"
					(effects
						(font
							(size 1.27 1.27)
						)
					)
				)
			)
			(pin bidirectional line
				(at 27.94 -20.32 180)
				(length 3.81)
				(name "(T1)P3.5"
					(effects
						(font
							(size 1.27 1.27)
						)
					)
				)
				(number "23"
					(effects
						(font
							(size 1.27 1.27)
						)
					)
				)
			)
			(pin bidirectional line
				(at 27.94 -22.86 180)
				(length 3.81)
				(name "(~{WR})P3.6"
					(effects
						(font
							(size 1.27 1.27)
						)
					)
				)
				(number "24"
					(effects
						(font
							(size 1.27 1.27)
						)
					)
				)
			)
			(pin bidirectional line
				(at 27.94 -25.4 180)
				(length 3.81)
				(name "(~{RD})P3.7"
					(effects
						(font
							(size 1.27 1.27)
						)
					)
				)
				(number "25"
					(effects
						(font
							(size 1.27 1.27)
						)
					)
				)
			)
			(pin bidirectional line
				(at -27.94 -10.16 0)
				(length 3.81)
				(name "SCLOCK"
					(effects
						(font
							(size 1.27 1.27)
						)
					)
				)
				(number "26"
					(effects
						(font
							(size 1.27 1.27)
						)
					)
				)
			)
			(pin bidirectional line
				(at -27.94 -7.62 0)
				(length 3.81)
				(name "SDATA/MOSI"
					(effects
						(font
							(size 1.27 1.27)
						)
					)
				)
				(number "27"
					(effects
						(font
							(size 1.27 1.27)
						)
					)
				)
			)
			(pin bidirectional line
				(at 27.94 15.24 180)
				(length 3.81)
				(name "(A8)P2.0"
					(effects
						(font
							(size 1.27 1.27)
						)
					)
				)
				(number "28"
					(effects
						(font
							(size 1.27 1.27)
						)
					)
				)
			)
			(pin bidirectional line
				(at 27.94 12.7 180)
				(length 3.81)
				(name "(A9)P2.1"
					(effects
						(font
							(size 1.27 1.27)
						)
					)
				)
				(number "29"
					(effects
						(font
							(size 1.27 1.27)
						)
					)
				)
			)
			(pin bidirectional line
				(at -27.94 27.94 0)
				(length 3.81)
				(name "P1.2(DAC/IEXC1)"
					(effects
						(font
							(size 1.27 1.27)
						)
					)
				)
				(number "3"
					(effects
						(font
							(size 1.27 1.27)
						)
					)
				)
			)
			(pin bidirectional line
				(at 27.94 10.16 180)
				(length 3.81)
				(name "(A10)P2.2"
					(effects
						(font
							(size 1.27 1.27)
						)
					)
				)
				(number "30"
					(effects
						(font
							(size 1.27 1.27)
						)
					)
				)
			)
			(pin bidirectional line
				(at 27.94 7.62 180)
				(length 3.81)
				(name "(A11)P2.3"
					(effects
						(font
							(size 1.27 1.27)
						)
					)
				)
				(number "31"
					(effects
						(font
							(size 1.27 1.27)
						)
					)
				)
			)
			(pin input line
				(at -27.94 -33.02 0)
				(length 3.81)
				(name "XTAL1"
					(effects
						(font
							(size 1.27 1.27)
						)
					)
				)
				(number "32"
					(effects
						(font
							(size 1.27 1.27)
						)
					)
				)
			)
			(pin output line
				(at -27.94 -38.1 0)
				(length 3.81)
				(name "XTAL2"
					(effects
						(font
							(size 1.27 1.27)
						)
					)
				)
				(number "33"
					(effects
						(font
							(size 1.27 1.27)
						)
					)
				)
			)
			(pin power_in line
				(at 2.54 45.72 270)
				(length 3.81)
				(name "DVDD"
					(effects
						(font
							(size 1.27 1.27)
						)
					)
				)
				(number "34"
					(effects
						(font
							(size 1.27 1.27)
						)
					)
				)
			)
			(pin power_in line
				(at 2.54 -45.72 90)
				(length 3.81)
				(name "DGND"
					(effects
						(font
							(size 1.27 1.27)
						)
					)
				)
				(number "35"
					(effects
						(font
							(size 1.27 1.27)
						)
					)
				)
			)
			(pin bidirectional line
				(at 27.94 5.08 180)
				(length 3.81)
				(name "(A12)P2.4"
					(effects
						(font
							(size 1.27 1.27)
						)
					)
				)
				(number "36"
					(effects
						(font
							(size 1.27 1.27)
						)
					)
				)
			)
			(pin bidirectional line
				(at 27.94 2.54 180)
				(length 3.81)
				(name "(A13)P2.5"
					(effects
						(font
							(size 1.27 1.27)
						)
					)
				)
				(number "37"
					(effects
						(font
							(size 1.27 1.27)
						)
					)
				)
			)
			(pin bidirectional line
				(at 27.94 0 180)
				(length 3.81)
				(name "(A14)P2.6"
					(effects
						(font
							(size 1.27 1.27)
						)
					)
				)
				(number "38"
					(effects
						(font
							(size 1.27 1.27)
						)
					)
				)
			)
			(pin bidirectional line
				(at 27.94 -2.54 180)
				(length 3.81)
				(name "(A15)P2.7"
					(effects
						(font
							(size 1.27 1.27)
						)
					)
				)
				(number "39"
					(effects
						(font
							(size 1.27 1.27)
						)
					)
				)
			)
			(pin bidirectional line
				(at -27.94 25.4 0)
				(length 3.81)
				(name "P1.3(AIN5/IEXC2)"
					(effects
						(font
							(size 1.27 1.27)
						)
					)
				)
				(number "4"
					(effects
						(font
							(size 1.27 1.27)
						)
					)
				)
			)
			(pin bidirectional line
				(at 27.94 -35.56 180)
				(length 3.81)
				(name "~{EA}"
					(effects
						(font
							(size 1.27 1.27)
						)
					)
				)
				(number "40"
					(effects
						(font
							(size 1.27 1.27)
						)
					)
				)
			)
			(pin output line
				(at 27.94 -33.02 180)
				(length 3.81)
				(name "~{PSEN}"
					(effects
						(font
							(size 1.27 1.27)
						)
					)
				)
				(number "41"
					(effects
						(font
							(size 1.27 1.27)
						)
					)
				)
			)
			(pin output line
				(at 27.94 -38.1 180)
				(length 3.81)
				(name "ALE"
					(effects
						(font
							(size 1.27 1.27)
						)
					)
				)
				(number "42"
					(effects
						(font
							(size 1.27 1.27)
						)
					)
				)
			)
			(pin tri_state line
				(at 27.94 38.1 180)
				(length 3.81)
				(name "(AD0)P0.0"
					(effects
						(font
							(size 1.27 1.27)
						)
					)
				)
				(number "43"
					(effects
						(font
							(size 1.27 1.27)
						)
					)
				)
			)
			(pin tri_state line
				(at 27.94 35.56 180)
				(length 3.81)
				(name "(AD1)P0.1"
					(effects
						(font
							(size 1.27 1.27)
						)
					)
				)
				(number "44"
					(effects
						(font
							(size 1.27 1.27)
						)
					)
				)
			)
			(pin tri_state line
				(at 27.94 33.02 180)
				(length 3.81)
				(name "(AD2)P0.2"
					(effects
						(font
							(size 1.27 1.27)
						)
					)
				)
				(number "45"
					(effects
						(font
							(size 1.27 1.27)
						)
					)
				)
			)
			(pin tri_state line
				(at 27.94 30.48 180)
				(length 3.81)
				(name "(AD3)P0.3"
					(effects
						(font
							(size 1.27 1.27)
						)
					)
				)
				(number "46"
					(effects
						(font
							(size 1.27 1.27)
						)
					)
				)
			)
			(pin power_in line
				(at 5.08 -45.72 90)
				(length 3.81)
				(name "DGND"
					(effects
						(font
							(size 1.27 1.27)
						)
					)
				)
				(number "47"
					(effects
						(font
							(size 1.27 1.27)
						)
					)
				)
			)
			(pin power_in line
				(at 5.08 45.72 270)
				(length 3.81)
				(name "DVDD"
					(effects
						(font
							(size 1.27 1.27)
						)
					)
				)
				(number "48"
					(effects
						(font
							(size 1.27 1.27)
						)
					)
				)
			)
			(pin tri_state line
				(at 27.94 27.94 180)
				(length 3.81)
				(name "(AD4)P0.4"
					(effects
						(font
							(size 1.27 1.27)
						)
					)
				)
				(number "49"
					(effects
						(font
							(size 1.27 1.27)
						)
					)
				)
			)
			(pin power_in line
				(at -5.08 45.72 270)
				(length 3.81)
				(name "AVDD"
					(effects
						(font
							(size 1.27 1.27)
						)
					)
				)
				(number "5"
					(effects
						(font
							(size 1.27 1.27)
						)
					)
				)
			)
			(pin tri_state line
				(at 27.94 25.4 180)
				(length 3.81)
				(name "(AD5)P0.5"
					(effects
						(font
							(size 1.27 1.27)
						)
					)
				)
				(number "50"
					(effects
						(font
							(size 1.27 1.27)
						)
					)
				)
			)
			(pin tri_state line
				(at 27.94 22.86 180)
				(length 3.81)
				(name "(AD6)P0.6"
					(effects
						(font
							(size 1.27 1.27)
						)
					)
				)
				(number "51"
					(effects
						(font
							(size 1.27 1.27)
						)
					)
				)
			)
			(pin tri_state line
				(at 27.94 20.32 180)
				(length 3.81)
				(name "(AD7)P0.7"
					(effects
						(font
							(size 1.27 1.27)
						)
					)
				)
				(number "52"
					(effects
						(font
							(size 1.27 1.27)
						)
					)
				)
			)
			(pin power_in line
				(at -5.08 -45.72 90)
				(length 3.81)
				(name "AGND"
					(effects
						(font
							(size 1.27 1.27)
						)
					)
				)
				(number "6"
					(effects
						(font
							(size 1.27 1.27)
						)
					)
				)
			)
			(pin passive line
				(at -27.94 5.08 0)
				(length 3.81)
				(name "REF-"
					(effects
						(font
							(size 1.27 1.27)
						)
					)
				)
				(number "7"
					(effects
						(font
							(size 1.27 1.27)
						)
					)
				)
			)
			(pin passive line
				(at -27.94 10.16 0)
				(length 3.81)
				(name "REF+"
					(effects
						(font
							(size 1.27 1.27)
						)
					)
				)
				(number "8"
					(effects
						(font
							(size 1.27 1.27)
						)
					)
				)
			)
			(pin input line
				(at -27.94 22.86 0)
				(length 3.81)
				(name "P1.4(AIN1)"
					(effects
						(font
							(size 1.27 1.27)
						)
					)
				)
				(number "9"
					(effects
						(font
							(size 1.27 1.27)
						)
					)
				)
			)
		)
	)
	(symbol "MAX32660GTP"
		(exclude_from_sim no)
		(in_bom yes)
		(on_board yes)
		(property "Reference" "U"
			(at -16.51 25.4 0)
			(effects
				(font
					(size 1.27 1.27)
				)
				(justify left)
			)
		)
		(property "Value" "MAX32660GTP"
			(at -16.51 22.86 0)
			(effects
				(font
					(size 1.27 1.27)
				)
				(justify left)
			)
		)
		(property "Footprint" "Package_DFN_QFN:TQFN-20-1EP_4x4mm_P0.5mm_EP2.7x2.7mm"
			(at 0 0 0)
			(effects
				(font
					(size 1.27 1.27)
				)
				(hide yes)
			)
		)
		(property "Datasheet" "https://www.analog.com/media/en/technical-documentation/data-sheets/max32660.pdf"
			(at 0 2.54 0)
			(effects
				(font
					(size 1.27 1.27)
				)
				(hide yes)
			)
		)
		(property "Description" "Cortex-M4 Microcontroller, TQFN-20"
			(at 0 0 0)
			(effects
				(font
					(size 1.27 1.27)
				)
				(hide yes)
			)
		)
		(property "ki_keywords" "ARM 32-bit Cortex-M4 Maxim ADI Darwin"
			(at 0 0 0)
			(effects
				(font
					(size 1.27 1.27)
				)
				(hide yes)
			)
		)
		(property "ki_fp_filters" "TQFN*1EP*4x4mm*P0.5mm*EP2.7x2.7mm*"
			(at 0 0 0)
			(effects
				(font
					(size 1.27 1.27)
				)
				(hide yes)
			)
		)
		(symbol "MAX32660GTP_0_1"
			(rectangle
				(start -16.51 21.59)
				(end 16.51 -21.59)
				(stroke
					(width 0.254)
					(type default)
				)
				(fill
					(type background)
				)
			)
		)
		(symbol "MAX32660GTP_1_1"
			(pin bidirectional line
				(at 20.32 15.24 180)
				(length 3.81)
				(name "P0.1"
					(effects
						(font
							(size 1.27 1.27)
						)
					)
				)
				(number "1"
					(effects
						(font
							(size 1.27 1.27)
						)
					)
				)
			)
			(pin passive line
				(at 2.54 25.4 270)
				(length 3.81)
				(name "VCORE"
					(effects
						(font
							(size 1.27 1.27)
						)
					)
				)
				(number "10"
					(effects
						(font
							(size 1.27 1.27)
						)
					)
				)
			)
			(pin bidirectional line
				(at 20.32 -5.08 180)
				(length 3.81)
				(name "P0.9"
					(effects
						(font
							(size 1.27 1.27)
						)
					)
				)
				(number "11"
					(effects
						(font
							(size 1.27 1.27)
						)
					)
				)
			)
			(pin bidirectional line
				(at 20.32 -2.54 180)
				(length 3.81)
				(name "P0.8"
					(effects
						(font
							(size 1.27 1.27)
						)
					)
				)
				(number "12"
					(effects
						(font
							(size 1.27 1.27)
						)
					)
				)
			)
			(pin bidirectional line
				(at 20.32 -10.16 180)
				(length 3.81)
				(name "P0.11"
					(effects
						(font
							(size 1.27 1.27)
						)
					)
				)
				(number "13"
					(effects
						(font
							(size 1.27 1.27)
						)
					)
				)
			)
			(pin bidirectional line
				(at 20.32 -7.62 180)
				(length 3.81)
				(name "P0.10"
					(effects
						(font
							(size 1.27 1.27)
						)
					)
				)
				(number "14"
					(effects
						(font
							(size 1.27 1.27)
						)
					)
				)
			)
			(pin bidirectional line
				(at 20.32 0 180)
				(length 3.81)
				(name "P0.7"
					(effects
						(font
							(size 1.27 1.27)
						)
					)
				)
				(number "15"
					(effects
						(font
							(size 1.27 1.27)
						)
					)
				)
			)
			(pin bidirectional line
				(at 20.32 2.54 180)
				(length 3.81)
				(name "P0.6"
					(effects
						(font
							(size 1.27 1.27)
						)
					)
				)
				(number "16"
					(effects
						(font
							(size 1.27 1.27)
						)
					)
				)
			)
			(pin bidirectional line
				(at 20.32 5.08 180)
				(length 3.81)
				(name "P0.5"
					(effects
						(font
							(size 1.27 1.27)
						)
					)
				)
				(number "17"
					(effects
						(font
							(size 1.27 1.27)
						)
					)
				)
			)
			(pin bidirectional line
				(at 20.32 7.62 180)
				(length 3.81)
				(name "P0.4"
					(effects
						(font
							(size 1.27 1.27)
						)
					)
				)
				(number "18"
					(effects
						(font
							(size 1.27 1.27)
						)
					)
				)
			)
			(pin bidirectional line
				(at 20.32 10.16 180)
				(length 3.81)
				(name "P0.3"
					(effects
						(font
							(size 1.27 1.27)
						)
					)
				)
				(number "19"
					(effects
						(font
							(size 1.27 1.27)
						)
					)
				)
			)
			(pin bidirectional line
				(at 20.32 17.78 180)
				(length 3.81)
				(name "P0.0"
					(effects
						(font
							(size 1.27 1.27)
						)
					)
				)
				(number "2"
					(effects
						(font
							(size 1.27 1.27)
						)
					)
				)
			)
			(pin bidirectional line
				(at 20.32 12.7 180)
				(length 3.81)
				(name "P0.2"
					(effects
						(font
							(size 1.27 1.27)
						)
					)
				)
				(number "20"
					(effects
						(font
							(size 1.27 1.27)
						)
					)
				)
			)
			(pin passive line
				(at 0 -25.4 90)
				(length 3.81) hide
				(name "V_{SS}"
					(effects
						(font
							(size 1.27 1.27)
						)
					)
				)
				(number "21"
					(effects
						(font
							(size 1.27 1.27)
						)
					)
				)
			)
			(pin bidirectional line
				(at 20.32 -15.24 180)
				(length 3.81)
				(name "P0.13"
					(effects
						(font
							(size 1.27 1.27)
						)
					)
				)
				(number "3"
					(effects
						(font
							(size 1.27 1.27)
						)
					)
				)
			)
			(pin bidirectional line
				(at 20.32 -12.7 180)
				(length 3.81)
				(name "P0.12"
					(effects
						(font
							(size 1.27 1.27)
						)
					)
				)
				(number "4"
					(effects
						(font
							(size 1.27 1.27)
						)
					)
				)
			)
			(pin input line
				(at -20.32 17.78 0)
				(length 3.81)
				(name "~{RSTN}"
					(effects
						(font
							(size 1.27 1.27)
						)
					)
				)
				(number "5"
					(effects
						(font
							(size 1.27 1.27)
						)
					)
				)
			)
			(pin power_in line
				(at 0 -25.4 90)
				(length 3.81)
				(name "V_{SS}"
					(effects
						(font
							(size 1.27 1.27)
						)
					)
				)
				(number "6"
					(effects
						(font
							(size 1.27 1.27)
						)
					)
				)
			)
			(pin output line
				(at -20.32 -17.78 0)
				(length 3.81)
				(name "32KOUT"
					(effects
						(font
							(size 1.27 1.27)
						)
					)
				)
				(number "7"
					(effects
						(font
							(size 1.27 1.27)
						)
					)
				)
			)
			(pin input line
				(at -20.32 -12.7 0)
				(length 3.81)
				(name "32KIN"
					(effects
						(font
							(size 1.27 1.27)
						)
					)
				)
				(number "8"
					(effects
						(font
							(size 1.27 1.27)
						)
					)
				)
			)
			(pin power_in line
				(at 0 25.4 270)
				(length 3.81)
				(name "VDD"
					(effects
						(font
							(size 1.27 1.27)
						)
					)
				)
				(number "9"
					(effects
						(font
							(size 1.27 1.27)
						)
					)
				)
			)
		)
	)
	(symbol "MAX32670GTL"
		(exclude_from_sim no)
		(in_bom yes)
		(on_board yes)
		(property "Reference" "U"
			(at -19.05 45.72 0)
			(effects
				(font
					(size 1.27 1.27)
				)
				(justify left)
			)
		)
		(property "Value" "MAX32670GTL"
			(at -19.05 43.18 0)
			(effects
				(font
					(size 1.27 1.27)
				)
				(justify left)
			)
		)
		(property "Footprint" "Package_DFN_QFN:TQFN-40-1EP_5x5mm_P0.4mm_EP3.5x3.5mm"
			(at 0 0 0)
			(effects
				(font
					(size 1.27 1.27)
				)
				(hide yes)
			)
		)
		(property "Datasheet" "https://www.analog.com/media/en/technical-documentation/data-sheets/max32670-max32671.pdf"
			(at 0 0 0)
			(effects
				(font
					(size 1.27 1.27)
				)
				(hide yes)
			)
		)
		(property "Description" "Cortex-M4 Microcontroller, TQFN-40"
			(at 0 0 0)
			(effects
				(font
					(size 1.27 1.27)
				)
				(hide yes)
			)
		)
		(property "ki_keywords" "ARM 32-bit Cortex-M4 Maxim ADI Darwin"
			(at 0 0 0)
			(effects
				(font
					(size 1.27 1.27)
				)
				(hide yes)
			)
		)
		(property "ki_fp_filters" "TQFN*1EP*5x5mm*P0.4mm*EP3.5x3.5mm*"
			(at 0 0 0)
			(effects
				(font
					(size 1.27 1.27)
				)
				(hide yes)
			)
		)
		(symbol "MAX32670GTL_0_1"
			(rectangle
				(start -19.05 41.91)
				(end 19.05 -41.91)
				(stroke
					(width 0.254)
					(type default)
				)
				(fill
					(type background)
				)
			)
		)
		(symbol "MAX32670GTL_1_1"
			(pin bidirectional line
				(at 22.86 -12.7 180)
				(length 3.81)
				(name "P0.20"
					(effects
						(font
							(size 1.27 1.27)
						)
					)
				)
				(number "1"
					(effects
						(font
							(size 1.27 1.27)
						)
					)
				)
			)
			(pin bidirectional line
				(at 22.86 22.86 180)
				(length 3.81)
				(name "P0.6"
					(effects
						(font
							(size 1.27 1.27)
						)
					)
				)
				(number "10"
					(effects
						(font
							(size 1.27 1.27)
						)
					)
				)
			)
			(pin bidirectional line
				(at 22.86 20.32 180)
				(length 3.81)
				(name "P0.7"
					(effects
						(font
							(size 1.27 1.27)
						)
					)
				)
				(number "11"
					(effects
						(font
							(size 1.27 1.27)
						)
					)
				)
			)
			(pin bidirectional line
				(at 22.86 -20.32 180)
				(length 3.81)
				(name "P0.23"
					(effects
						(font
							(size 1.27 1.27)
						)
					)
				)
				(number "12"
					(effects
						(font
							(size 1.27 1.27)
						)
					)
				)
			)
			(pin bidirectional line
				(at 22.86 -22.86 180)
				(length 3.81)
				(name "P0.24"
					(effects
						(font
							(size 1.27 1.27)
						)
					)
				)
				(number "13"
					(effects
						(font
							(size 1.27 1.27)
						)
					)
				)
			)
			(pin bidirectional line
				(at 22.86 -25.4 180)
				(length 3.81)
				(name "P0.25"
					(effects
						(font
							(size 1.27 1.27)
						)
					)
				)
				(number "14"
					(effects
						(font
							(size 1.27 1.27)
						)
					)
				)
			)
			(pin bidirectional line
				(at 22.86 -27.94 180)
				(length 3.81)
				(name "P0.26"
					(effects
						(font
							(size 1.27 1.27)
						)
					)
				)
				(number "15"
					(effects
						(font
							(size 1.27 1.27)
						)
					)
				)
			)
			(pin bidirectional line
				(at 22.86 -30.48 180)
				(length 3.81)
				(name "P0.27"
					(effects
						(font
							(size 1.27 1.27)
						)
					)
				)
				(number "16"
					(effects
						(font
							(size 1.27 1.27)
						)
					)
				)
			)
			(pin bidirectional line
				(at 22.86 -33.02 180)
				(length 3.81)
				(name "P0.28"
					(effects
						(font
							(size 1.27 1.27)
						)
					)
				)
				(number "17"
					(effects
						(font
							(size 1.27 1.27)
						)
					)
				)
			)
			(pin bidirectional line
				(at 22.86 -35.56 180)
				(length 3.81)
				(name "P0.29"
					(effects
						(font
							(size 1.27 1.27)
						)
					)
				)
				(number "18"
					(effects
						(font
							(size 1.27 1.27)
						)
					)
				)
			)
			(pin bidirectional line
				(at 22.86 -38.1 180)
				(length 3.81)
				(name "P0.30"
					(effects
						(font
							(size 1.27 1.27)
						)
					)
				)
				(number "19"
					(effects
						(font
							(size 1.27 1.27)
						)
					)
				)
			)
			(pin bidirectional line
				(at 22.86 -15.24 180)
				(length 3.81)
				(name "P0.21"
					(effects
						(font
							(size 1.27 1.27)
						)
					)
				)
				(number "2"
					(effects
						(font
							(size 1.27 1.27)
						)
					)
				)
			)
			(pin bidirectional line
				(at 22.86 17.78 180)
				(length 3.81)
				(name "P0.8"
					(effects
						(font
							(size 1.27 1.27)
						)
					)
				)
				(number "20"
					(effects
						(font
							(size 1.27 1.27)
						)
					)
				)
			)
			(pin bidirectional line
				(at 22.86 15.24 180)
				(length 3.81)
				(name "P0.9"
					(effects
						(font
							(size 1.27 1.27)
						)
					)
				)
				(number "21"
					(effects
						(font
							(size 1.27 1.27)
						)
					)
				)
			)
			(pin bidirectional line
				(at 22.86 12.7 180)
				(length 3.81)
				(name "P0.10"
					(effects
						(font
							(size 1.27 1.27)
						)
					)
				)
				(number "22"
					(effects
						(font
							(size 1.27 1.27)
						)
					)
				)
			)
			(pin bidirectional line
				(at 22.86 10.16 180)
				(length 3.81)
				(name "P0.11"
					(effects
						(font
							(size 1.27 1.27)
						)
					)
				)
				(number "23"
					(effects
						(font
							(size 1.27 1.27)
						)
					)
				)
			)
			(pin bidirectional line
				(at 22.86 7.62 180)
				(length 3.81)
				(name "P0.12"
					(effects
						(font
							(size 1.27 1.27)
						)
					)
				)
				(number "24"
					(effects
						(font
							(size 1.27 1.27)
						)
					)
				)
			)
			(pin bidirectional line
				(at 22.86 5.08 180)
				(length 3.81)
				(name "P0.13"
					(effects
						(font
							(size 1.27 1.27)
						)
					)
				)
				(number "25"
					(effects
						(font
							(size 1.27 1.27)
						)
					)
				)
			)
			(pin bidirectional line
				(at 22.86 2.54 180)
				(length 3.81)
				(name "P0.14"
					(effects
						(font
							(size 1.27 1.27)
						)
					)
				)
				(number "26"
					(effects
						(font
							(size 1.27 1.27)
						)
					)
				)
			)
			(pin bidirectional line
				(at 22.86 0 180)
				(length 3.81)
				(name "P0.15"
					(effects
						(font
							(size 1.27 1.27)
						)
					)
				)
				(number "27"
					(effects
						(font
							(size 1.27 1.27)
						)
					)
				)
			)
			(pin bidirectional line
				(at 22.86 -2.54 180)
				(length 3.81)
				(name "P0.16"
					(effects
						(font
							(size 1.27 1.27)
						)
					)
				)
				(number "28"
					(effects
						(font
							(size 1.27 1.27)
						)
					)
				)
			)
			(pin bidirectional line
				(at 22.86 -5.08 180)
				(length 3.81)
				(name "P0.17"
					(effects
						(font
							(size 1.27 1.27)
						)
					)
				)
				(number "29"
					(effects
						(font
							(size 1.27 1.27)
						)
					)
				)
			)
			(pin bidirectional line
				(at 22.86 -17.78 180)
				(length 3.81)
				(name "P0.22"
					(effects
						(font
							(size 1.27 1.27)
						)
					)
				)
				(number "3"
					(effects
						(font
							(size 1.27 1.27)
						)
					)
				)
			)
			(pin bidirectional line
				(at 22.86 -7.62 180)
				(length 3.81)
				(name "P0.18"
					(effects
						(font
							(size 1.27 1.27)
						)
					)
				)
				(number "30"
					(effects
						(font
							(size 1.27 1.27)
						)
					)
				)
			)
			(pin bidirectional line
				(at 22.86 -10.16 180)
				(length 3.81)
				(name "P0.19"
					(effects
						(font
							(size 1.27 1.27)
						)
					)
				)
				(number "31"
					(effects
						(font
							(size 1.27 1.27)
						)
					)
				)
			)
			(pin passive line
				(at 5.08 45.72 270)
				(length 3.81)
				(name "VREG1"
					(effects
						(font
							(size 1.27 1.27)
						)
					)
				)
				(number "32"
					(effects
						(font
							(size 1.27 1.27)
						)
					)
				)
			)
			(pin input line
				(at -22.86 10.16 0)
				(length 3.81)
				(name "HFXIN"
					(effects
						(font
							(size 1.27 1.27)
						)
					)
				)
				(number "33"
					(effects
						(font
							(size 1.27 1.27)
						)
					)
				)
			)
			(pin output line
				(at -22.86 5.08 0)
				(length 3.81)
				(name "HFXOUT"
					(effects
						(font
							(size 1.27 1.27)
						)
					)
				)
				(number "34"
					(effects
						(font
							(size 1.27 1.27)
						)
					)
				)
			)
			(pin input line
				(at -22.86 38.1 0)
				(length 3.81)
				(name "~{RSTN}"
					(effects
						(font
							(size 1.27 1.27)
						)
					)
				)
				(number "35"
					(effects
						(font
							(size 1.27 1.27)
						)
					)
				)
			)
			(pin power_in line
				(at 0 -45.72 90)
				(length 3.81)
				(name "V_{SS}"
					(effects
						(font
							(size 1.27 1.27)
						)
					)
				)
				(number "36"
					(effects
						(font
							(size 1.27 1.27)
						)
					)
				)
			)
			(pin power_in line
				(at 0 45.72 270)
				(length 3.81)
				(name "VDD"
					(effects
						(font
							(size 1.27 1.27)
						)
					)
				)
				(number "37"
					(effects
						(font
							(size 1.27 1.27)
						)
					)
				)
			)
			(pin output line
				(at -22.86 20.32 0)
				(length 3.81)
				(name "32KOUT"
					(effects
						(font
							(size 1.27 1.27)
						)
					)
				)
				(number "38"
					(effects
						(font
							(size 1.27 1.27)
						)
					)
				)
			)
			(pin input line
				(at -22.86 25.4 0)
				(length 3.81)
				(name "32KIN"
					(effects
						(font
							(size 1.27 1.27)
						)
					)
				)
				(number "39"
					(effects
						(font
							(size 1.27 1.27)
						)
					)
				)
			)
			(pin bidirectional line
				(at 22.86 38.1 180)
				(length 3.81)
				(name "P0.0"
					(effects
						(font
							(size 1.27 1.27)
						)
					)
				)
				(number "4"
					(effects
						(font
							(size 1.27 1.27)
						)
					)
				)
			)
			(pin passive line
				(at 2.54 45.72 270)
				(length 3.81)
				(name "VCORE"
					(effects
						(font
							(size 1.27 1.27)
						)
					)
				)
				(number "40"
					(effects
						(font
							(size 1.27 1.27)
						)
					)
				)
			)
			(pin passive line
				(at 0 -45.72 90)
				(length 3.81) hide
				(name "V_{SS}"
					(effects
						(font
							(size 1.27 1.27)
						)
					)
				)
				(number "41"
					(effects
						(font
							(size 1.27 1.27)
						)
					)
				)
			)
			(pin bidirectional line
				(at 22.86 35.56 180)
				(length 3.81)
				(name "P0.1"
					(effects
						(font
							(size 1.27 1.27)
						)
					)
				)
				(number "5"
					(effects
						(font
							(size 1.27 1.27)
						)
					)
				)
			)
			(pin bidirectional line
				(at 22.86 33.02 180)
				(length 3.81)
				(name "P0.2"
					(effects
						(font
							(size 1.27 1.27)
						)
					)
				)
				(number "6"
					(effects
						(font
							(size 1.27 1.27)
						)
					)
				)
			)
			(pin bidirectional line
				(at 22.86 30.48 180)
				(length 3.81)
				(name "P0.3"
					(effects
						(font
							(size 1.27 1.27)
						)
					)
				)
				(number "7"
					(effects
						(font
							(size 1.27 1.27)
						)
					)
				)
			)
			(pin bidirectional line
				(at 22.86 27.94 180)
				(length 3.81)
				(name "P0.4"
					(effects
						(font
							(size 1.27 1.27)
						)
					)
				)
				(number "8"
					(effects
						(font
							(size 1.27 1.27)
						)
					)
				)
			)
			(pin bidirectional line
				(at 22.86 25.4 180)
				(length 3.81)
				(name "P0.5"
					(effects
						(font
							(size 1.27 1.27)
						)
					)
				)
				(number "9"
					(effects
						(font
							(size 1.27 1.27)
						)
					)
				)
			)
		)
	)
)